{
  "group": "fracdustry",
  "type": "minecraft:crafting_shaped",
  "pattern": [
    "ibi",
    "rsr",
    "ifi"
  ],
  "key": {
    "i": {
      "item": "minecraft:iron_ingot"
    },
    "b": {
      "item": "minecraft:water_bucket"
    },
    "r": {
      "item": "minecraft:repeater"
    },
    "s": {
      "item": "minecraft:stonecutter"
    },
    "f": {
      "item": "minecraft:furnace"
    }
  },
  "result": {
    "item": "fracdustry:ore_processor",
    "count": 1
  }
}