{
	"credit": "Onisk made with Blockbench",
	"texture_size": [128, 128],
	"textures": {
		"0": "fracdustry:block/generators/kinetic_generator/kinetic_generator",
		"particle": "minecraft:block/iron_block"
	},
	"elements": [
		{
			"name": "octagon",
			"from": [7.83164, 4.8, 5.61935],
			"to": [9.32281, 13.4, 9.21935],
			"rotation": {"angle": 45, "axis": "y", "origin": [8.57723, -8.5, 7.41935]},
			"faces": {
				"north": {"uv": [1.75, 4, 1.875, 5.125], "texture": "#0"},
				"east": {"uv": [1.25, 5.375, 1.75, 6.5], "texture": "#0"},
				"south": {"uv": [1.875, 4, 2, 5.125], "texture": "#0"},
				"west": {"uv": [5, 6.375, 5.5, 7.5], "texture": "#0"},
				"up": {"uv": [2.75, 7.75, 2.625, 7.25], "texture": "#0"},
				"down": {"uv": [4, 7.75, 3.875, 8.25], "texture": "#0"}
			}
		},
		{
			"name": "octagon",
			"from": [7.83164, 4.8, 5.61935],
			"to": [9.32281, 13.4, 9.21935],
			"rotation": {"angle": 0, "axis": "y", "origin": [8.57723, -8.5, 7.41935]},
			"faces": {
				"north": {"uv": [7.25, 1.25, 7.375, 2.375], "texture": "#0"},
				"east": {"uv": [2.75, 6.625, 3.25, 7.75], "texture": "#0"},
				"south": {"uv": [7.375, 1.25, 7.5, 2.375], "texture": "#0"},
				"west": {"uv": [6.75, 1.25, 7.25, 2.375], "texture": "#0"},
				"up": {"uv": [8.375, 2.625, 8.25, 2.125], "texture": "#0"},
				"down": {"uv": [8.5, 3.5, 8.375, 4], "texture": "#0"}
			}
		},
		{
			"name": "octagon",
			"from": [6.77723, 4.8, 6.67377],
			"to": [10.37723, 13.4, 8.16494],
			"rotation": {"angle": 45, "axis": "y", "origin": [8.57723, -8.5, 7.41935]},
			"faces": {
				"north": {"uv": [6.75, 5.5, 7.25, 6.625], "texture": "#0"},
				"east": {"uv": [7.5, 1.25, 7.625, 2.375], "texture": "#0"},
				"south": {"uv": [6.75, 6.625, 7.25, 7.75], "texture": "#0"},
				"west": {"uv": [7.625, 1.25, 7.75, 2.375], "texture": "#0"},
				"up": {"uv": [1.75, 6.625, 1.25, 6.5], "texture": "#0"},
				"down": {"uv": [10.875, 9.375, 10.375, 9.5], "texture": "#0"}
			}
		},
		{
			"name": "octagon",
			"from": [4.77723, 4.8, 6.67377],
			"to": [12.37723, 13.4, 8.16494],
			"rotation": {"angle": 0, "axis": "y", "origin": [8.57723, -8.5, 7.41935]},
			"faces": {
				"north": {"uv": [3.5, 5.25, 4.5, 6.375], "texture": "#0"},
				"east": {"uv": [7.75, 2.625, 7.875, 3.75], "texture": "#0"},
				"south": {"uv": [4.5, 5.25, 5.5, 6.375], "texture": "#0"},
				"west": {"uv": [7.875, 4, 8, 5.125], "texture": "#0"},
				"up": {"uv": [7.75, 9.5, 6.75, 9.375], "texture": "#0"},
				"down": {"uv": [7.75, 9.5, 6.75, 9.625], "texture": "#0"}
			}
		},
		{
			"name": "octagon",
			"from": [10.77723, 5.05, 6.17377],
			"to": [12.87723, 5.4, 8.66494],
			"rotation": {"angle": 0, "axis": "y", "origin": [10.57723, -8.5, 7.41935]},
			"faces": {
				"north": {"uv": [10.875, 5.5, 11.125, 5.625], "texture": "#0"},
				"east": {"uv": [10.875, 5.625, 11.125, 5.75], "texture": "#0"},
				"south": {"uv": [5.75, 10.875, 6, 11], "texture": "#0"},
				"west": {"uv": [10.875, 5.75, 11.125, 5.875], "texture": "#0"},
				"up": {"uv": [7.25, 10.75, 7, 10.5], "texture": "#0"},
				"down": {"uv": [7.5, 10.5, 7.25, 10.75], "texture": "#0"}
			}
		},
		{
			"name": "octagon",
			"from": [10.77723, 5.8, 6.17377],
			"to": [12.87723, 6.15, 8.66494],
			"rotation": {"angle": 0, "axis": "y", "origin": [10.57723, -7.75, 7.41935]},
			"faces": {
				"north": {"uv": [6, 10.875, 6.25, 11], "texture": "#0"},
				"east": {"uv": [6.25, 10.875, 6.5, 11], "texture": "#0"},
				"south": {"uv": [10.875, 6.625, 11.125, 6.75], "texture": "#0"},
				"west": {"uv": [10.875, 6.75, 11.125, 6.875], "texture": "#0"},
				"up": {"uv": [7.75, 10.75, 7.5, 10.5], "texture": "#0"},
				"down": {"uv": [8, 10.5, 7.75, 10.75], "texture": "#0"}
			}
		},
		{
			"name": "octagon",
			"from": [10.77723, 6.55, 6.17377],
			"to": [12.87723, 6.9, 8.66494],
			"rotation": {"angle": 0, "axis": "y", "origin": [10.57723, -7, 7.41935]},
			"faces": {
				"north": {"uv": [10.875, 6.875, 11.125, 7], "texture": "#0"},
				"east": {"uv": [10.875, 7, 11.125, 7.125], "texture": "#0"},
				"south": {"uv": [10.875, 7.125, 11.125, 7.25], "texture": "#0"},
				"west": {"uv": [10.875, 7.25, 11.125, 7.375], "texture": "#0"},
				"up": {"uv": [8.25, 10.75, 8, 10.5], "texture": "#0"},
				"down": {"uv": [8.5, 10.5, 8.25, 10.75], "texture": "#0"}
			}
		},
		{
			"name": "octagon",
			"from": [10.77723, 7.3, 6.17377],
			"to": [12.87723, 7.65, 8.66494],
			"rotation": {"angle": 0, "axis": "y", "origin": [10.57723, -6.25, 7.41935]},
			"faces": {
				"north": {"uv": [10.875, 8.375, 11.125, 8.5], "texture": "#0"},
				"east": {"uv": [10.875, 8.5, 11.125, 8.625], "texture": "#0"},
				"south": {"uv": [10.875, 8.625, 11.125, 8.75], "texture": "#0"},
				"west": {"uv": [10.875, 8.75, 11.125, 8.875], "texture": "#0"},
				"up": {"uv": [9.75, 10.75, 9.5, 10.5], "texture": "#0"},
				"down": {"uv": [10, 10.5, 9.75, 10.75], "texture": "#0"}
			}
		},
		{
			"name": "octagon",
			"from": [10.77723, 8.05, 6.17377],
			"to": [12.87723, 8.4, 8.66494],
			"rotation": {"angle": 0, "axis": "y", "origin": [10.57723, -5.5, 7.41935]},
			"faces": {
				"north": {"uv": [10.875, 7.875, 11.125, 8], "texture": "#0"},
				"east": {"uv": [10.875, 8, 11.125, 8.125], "texture": "#0"},
				"south": {"uv": [10.875, 8.125, 11.125, 8.25], "texture": "#0"},
				"west": {"uv": [10.875, 8.25, 11.125, 8.375], "texture": "#0"},
				"up": {"uv": [9.25, 10.75, 9, 10.5], "texture": "#0"},
				"down": {"uv": [9.5, 10.5, 9.25, 10.75], "texture": "#0"}
			}
		},
		{
			"name": "octagon",
			"from": [10.77723, 8.8, 6.17377],
			"to": [12.87723, 9.15, 8.66494],
			"rotation": {"angle": 0, "axis": "y", "origin": [10.57723, -4.75, 7.41935]},
			"faces": {
				"north": {"uv": [10.875, 7.375, 11.125, 7.5], "texture": "#0"},
				"east": {"uv": [10.875, 7.5, 11.125, 7.625], "texture": "#0"},
				"south": {"uv": [10.875, 7.625, 11.125, 7.75], "texture": "#0"},
				"west": {"uv": [10.875, 7.75, 11.125, 7.875], "texture": "#0"},
				"up": {"uv": [8.75, 10.75, 8.5, 10.5], "texture": "#0"},
				"down": {"uv": [9, 10.5, 8.75, 10.75], "texture": "#0"}
			}
		},
		{
			"name": "octagon",
			"from": [10.77723, 9.55, 6.17377],
			"to": [12.87723, 9.9, 8.66494],
			"rotation": {"angle": 0, "axis": "y", "origin": [10.57723, -4, 7.41935]},
			"faces": {
				"north": {"uv": [10.875, 9.75, 11.125, 9.875], "texture": "#0"},
				"east": {"uv": [9.875, 10.875, 10.125, 11], "texture": "#0"},
				"south": {"uv": [10.875, 9.875, 11.125, 10], "texture": "#0"},
				"west": {"uv": [10.125, 10.875, 10.375, 11], "texture": "#0"},
				"up": {"uv": [1.875, 10.875, 1.625, 10.625], "texture": "#0"},
				"down": {"uv": [2.125, 10.625, 1.875, 10.875], "texture": "#0"}
			}
		},
		{
			"name": "octagon",
			"from": [10.77723, 10.3, 6.17377],
			"to": [12.87723, 10.65, 8.66494],
			"rotation": {"angle": 0, "axis": "y", "origin": [10.57723, -3.25, 7.41935]},
			"faces": {
				"north": {"uv": [10.875, 9.375, 11.125, 9.5], "texture": "#0"},
				"east": {"uv": [10.875, 9.5, 11.125, 9.625], "texture": "#0"},
				"south": {"uv": [9.625, 10.875, 9.875, 11], "texture": "#0"},
				"west": {"uv": [10.875, 9.625, 11.125, 9.75], "texture": "#0"},
				"up": {"uv": [10.75, 10.75, 10.5, 10.5], "texture": "#0"},
				"down": {"uv": [1, 10.625, 0.75, 10.875], "texture": "#0"}
			}
		},
		{
			"name": "octagon",
			"from": [10.77723, 11.05, 6.17377],
			"to": [12.87723, 11.4, 8.66494],
			"rotation": {"angle": 0, "axis": "y", "origin": [10.57723, -2.5, 7.41935]},
			"faces": {
				"north": {"uv": [10.875, 8.875, 11.125, 9], "texture": "#0"},
				"east": {"uv": [10.875, 9, 11.125, 9.125], "texture": "#0"},
				"south": {"uv": [10.875, 9.125, 11.125, 9.25], "texture": "#0"},
				"west": {"uv": [10.875, 9.25, 11.125, 9.375], "texture": "#0"},
				"up": {"uv": [10.25, 10.75, 10, 10.5], "texture": "#0"},
				"down": {"uv": [10.5, 10.5, 10.25, 10.75], "texture": "#0"}
			}
		},
		{
			"name": "octagon",
			"from": [10.77723, 11.8, 6.17377],
			"to": [12.87723, 12.15, 8.66494],
			"rotation": {"angle": 0, "axis": "y", "origin": [10.57723, -1.75, 7.41935]},
			"faces": {
				"north": {"uv": [10.875, 10.75, 11.125, 10.875], "texture": "#0"},
				"east": {"uv": [10.875, 10.875, 11.125, 11], "texture": "#0"},
				"south": {"uv": [0, 11, 0.25, 11.125], "texture": "#0"},
				"west": {"uv": [11, 0, 11.25, 0.125], "texture": "#0"},
				"up": {"uv": [4, 10.875, 3.75, 10.625], "texture": "#0"},
				"down": {"uv": [4.25, 10.625, 4, 10.875], "texture": "#0"}
			}
		},
		{
			"name": "octagon",
			"from": [10.77723, 12.55, 6.17377],
			"to": [12.87723, 12.9, 8.66494],
			"rotation": {"angle": 0, "axis": "y", "origin": [10.57723, -1, 7.41935]},
			"faces": {
				"north": {"uv": [10.875, 10.25, 11.125, 10.375], "texture": "#0"},
				"east": {"uv": [10.375, 10.875, 10.625, 11], "texture": "#0"},
				"south": {"uv": [10.875, 10.375, 11.125, 10.5], "texture": "#0"},
				"west": {"uv": [10.625, 10.875, 10.875, 11], "texture": "#0"},
				"up": {"uv": [2.375, 10.875, 2.125, 10.625], "texture": "#0"},
				"down": {"uv": [2.625, 10.625, 2.375, 10.875], "texture": "#0"}
			}
		},
		{
			"name": "octagon",
			"from": [4.27723, 5.05, 6.17377],
			"to": [6.37723, 5.4, 8.66494],
			"rotation": {"angle": 0, "axis": "y", "origin": [4.07723, -8.5, 7.41935]},
			"faces": {
				"north": {"uv": [3.5, 11, 3.75, 11.125], "texture": "#0"},
				"east": {"uv": [11, 3.5, 11.25, 3.625], "texture": "#0"},
				"south": {"uv": [11, 3.625, 11.25, 3.75], "texture": "#0"},
				"west": {"uv": [3.75, 11, 4, 11.125], "texture": "#0"},
				"up": {"uv": [10.875, 8.625, 10.625, 8.375], "texture": "#0"},
				"down": {"uv": [10.875, 8.625, 10.625, 8.875], "texture": "#0"}
			}
		},
		{
			"name": "octagon",
			"from": [4.27723, 5.8, 6.17377],
			"to": [6.37723, 6.15, 8.66494],
			"rotation": {"angle": 0, "axis": "y", "origin": [4.07723, -7.75, 7.41935]},
			"faces": {
				"north": {"uv": [11, 3.125, 11.25, 3.25], "texture": "#0"},
				"east": {"uv": [3.25, 11, 3.5, 11.125], "texture": "#0"},
				"south": {"uv": [11, 3.25, 11.25, 3.375], "texture": "#0"},
				"west": {"uv": [11, 3.375, 11.25, 3.5], "texture": "#0"},
				"up": {"uv": [10.875, 8.125, 10.625, 7.875], "texture": "#0"},
				"down": {"uv": [10.875, 8.125, 10.625, 8.375], "texture": "#0"}
			}
		},
		{
			"name": "octagon",
			"from": [4.27723, 6.55, 6.17377],
			"to": [6.37723, 6.9, 8.66494],
			"rotation": {"angle": 0, "axis": "y", "origin": [4.07723, -7, 7.41935]},
			"faces": {
				"north": {"uv": [11, 2.75, 11.25, 2.875], "texture": "#0"},
				"east": {"uv": [11, 2.875, 11.25, 3], "texture": "#0"},
				"south": {"uv": [3, 11, 3.25, 11.125], "texture": "#0"},
				"west": {"uv": [11, 3, 11.25, 3.125], "texture": "#0"},
				"up": {"uv": [10.875, 7.625, 10.625, 7.375], "texture": "#0"},
				"down": {"uv": [10.875, 7.625, 10.625, 7.875], "texture": "#0"}
			}
		},
		{
			"name": "octagon",
			"from": [4.27723, 7.3, 6.17377],
			"to": [6.37723, 7.65, 8.66494],
			"rotation": {"angle": 0, "axis": "y", "origin": [4.07723, -6.25, 7.41935]},
			"faces": {
				"north": {"uv": [2.5, 11, 2.75, 11.125], "texture": "#0"},
				"east": {"uv": [11, 2.5, 11.25, 2.625], "texture": "#0"},
				"south": {"uv": [11, 2.625, 11.25, 2.75], "texture": "#0"},
				"west": {"uv": [2.75, 11, 3, 11.125], "texture": "#0"},
				"up": {"uv": [10.875, 7.125, 10.625, 6.875], "texture": "#0"},
				"down": {"uv": [10.875, 7.125, 10.625, 7.375], "texture": "#0"}
			}
		},
		{
			"name": "octagon",
			"from": [4.27723, 8.05, 6.17377],
			"to": [6.37723, 8.4, 8.66494],
			"rotation": {"angle": 0, "axis": "y", "origin": [4.07723, -5.5, 7.41935]},
			"faces": {
				"north": {"uv": [11, 2.125, 11.25, 2.25], "texture": "#0"},
				"east": {"uv": [2.25, 11, 2.5, 11.125], "texture": "#0"},
				"south": {"uv": [11, 2.25, 11.25, 2.375], "texture": "#0"},
				"west": {"uv": [11, 2.375, 11.25, 2.5], "texture": "#0"},
				"up": {"uv": [6.625, 10.875, 6.375, 10.625], "texture": "#0"},
				"down": {"uv": [10.875, 6.625, 10.625, 6.875], "texture": "#0"}
			}
		},
		{
			"name": "octagon",
			"from": [4.27723, 8.8, 6.17377],
			"to": [6.37723, 9.15, 8.66494],
			"rotation": {"angle": 0, "axis": "y", "origin": [4.07723, -4.75, 7.41935]},
			"faces": {
				"north": {"uv": [11, 1.75, 11.25, 1.875], "texture": "#0"},
				"east": {"uv": [11, 1.875, 11.25, 2], "texture": "#0"},
				"south": {"uv": [2, 11, 2.25, 11.125], "texture": "#0"},
				"west": {"uv": [11, 2, 11.25, 2.125], "texture": "#0"},
				"up": {"uv": [6.125, 10.875, 5.875, 10.625], "texture": "#0"},
				"down": {"uv": [6.375, 10.625, 6.125, 10.875], "texture": "#0"}
			}
		},
		{
			"name": "octagon",
			"from": [4.27723, 9.55, 6.17377],
			"to": [6.37723, 9.9, 8.66494],
			"rotation": {"angle": 0, "axis": "y", "origin": [4.07723, -4, 7.41935]},
			"faces": {
				"north": {"uv": [1.5, 11, 1.75, 11.125], "texture": "#0"},
				"east": {"uv": [11, 1.5, 11.25, 1.625], "texture": "#0"},
				"south": {"uv": [11, 1.625, 11.25, 1.75], "texture": "#0"},
				"west": {"uv": [1.75, 11, 2, 11.125], "texture": "#0"},
				"up": {"uv": [5.875, 10.875, 5.625, 10.625], "texture": "#0"},
				"down": {"uv": [10.875, 5.625, 10.625, 5.875], "texture": "#0"}
			}
		},
		{
			"name": "octagon",
			"from": [4.27723, 10.3, 6.17377],
			"to": [6.37723, 10.65, 8.66494],
			"rotation": {"angle": 0, "axis": "y", "origin": [4.07723, -3.25, 7.41935]},
			"faces": {
				"north": {"uv": [11, 1.125, 11.25, 1.25], "texture": "#0"},
				"east": {"uv": [1.25, 11, 1.5, 11.125], "texture": "#0"},
				"south": {"uv": [11, 1.25, 11.25, 1.375], "texture": "#0"},
				"west": {"uv": [11, 1.375, 11.25, 1.5], "texture": "#0"},
				"up": {"uv": [5.625, 10.875, 5.375, 10.625], "texture": "#0"},
				"down": {"uv": [10.875, 5.375, 10.625, 5.625], "texture": "#0"}
			}
		},
		{
			"name": "octagon",
			"from": [4.27723, 11.05, 6.17377],
			"to": [6.37723, 11.4, 8.66494],
			"rotation": {"angle": 0, "axis": "y", "origin": [4.07723, -2.5, 7.41935]},
			"faces": {
				"north": {"uv": [11, 0.75, 11.25, 0.875], "texture": "#0"},
				"east": {"uv": [11, 0.875, 11.25, 1], "texture": "#0"},
				"south": {"uv": [1, 11, 1.25, 11.125], "texture": "#0"},
				"west": {"uv": [11, 1, 11.25, 1.125], "texture": "#0"},
				"up": {"uv": [10.875, 5.125, 10.625, 4.875], "texture": "#0"},
				"down": {"uv": [10.875, 5.125, 10.625, 5.375], "texture": "#0"}
			}
		},
		{
			"name": "octagon",
			"from": [4.27723, 11.8, 6.17377],
			"to": [6.37723, 12.15, 8.66494],
			"rotation": {"angle": 0, "axis": "y", "origin": [4.07723, -1.75, 7.41935]},
			"faces": {
				"north": {"uv": [0.5, 11, 0.75, 11.125], "texture": "#0"},
				"east": {"uv": [11, 0.5, 11.25, 0.625], "texture": "#0"},
				"south": {"uv": [11, 0.625, 11.25, 0.75], "texture": "#0"},
				"west": {"uv": [0.75, 11, 1, 11.125], "texture": "#0"},
				"up": {"uv": [4.75, 10.875, 4.5, 10.625], "texture": "#0"},
				"down": {"uv": [10.875, 4.625, 10.625, 4.875], "texture": "#0"}
			}
		},
		{
			"name": "octagon",
			"from": [4.27723, 12.55, 6.17377],
			"to": [6.37723, 12.9, 8.66494],
			"rotation": {"angle": 0, "axis": "y", "origin": [4.07723, -1, 7.41935]},
			"faces": {
				"north": {"uv": [11, 0.125, 11.25, 0.25], "texture": "#0"},
				"east": {"uv": [0.25, 11, 0.5, 11.125], "texture": "#0"},
				"south": {"uv": [11, 0.25, 11.25, 0.375], "texture": "#0"},
				"west": {"uv": [11, 0.375, 11.25, 0.5], "texture": "#0"},
				"up": {"uv": [4.5, 10.875, 4.25, 10.625], "texture": "#0"},
				"down": {"uv": [10.875, 4.375, 10.625, 4.625], "texture": "#0"}
			}
		},
		{
			"name": "octagon",
			"from": [8.26657, 1.125, 6.66935],
			"to": [8.88789, 16.125, 8.16935],
			"rotation": {"angle": 45, "axis": "y", "origin": [8.57723, 1, 7.41935]},
			"faces": {
				"north": {"uv": [8.75, 6.75, 8.875, 8.625], "texture": "#0"},
				"east": {"uv": [4.75, 7, 5, 8.875], "texture": "#0"},
				"south": {"uv": [8.75, 8.625, 8.875, 10.5], "texture": "#0"},
				"west": {"uv": [5.5, 7, 5.75, 8.875], "texture": "#0"},
				"up": {"uv": [1.25, 7.125, 1.125, 6.875], "texture": "#0"},
				"down": {"uv": [8.875, 1, 8.75, 1.25], "texture": "#0"}
			}
		},
		{
			"name": "octagon",
			"from": [8.26657, 1.125, 6.66935],
			"to": [8.88789, 16.125, 8.16935],
			"rotation": {"angle": 0, "axis": "y", "origin": [8.57723, 1, 7.41935]},
			"faces": {
				"north": {"uv": [8.875, 1, 9, 2.875], "texture": "#0"},
				"east": {"uv": [5.75, 7, 6, 8.875], "texture": "#0"},
				"south": {"uv": [8.875, 2.875, 9, 4.75], "texture": "#0"},
				"west": {"uv": [6, 7, 6.25, 8.875], "texture": "#0"},
				"up": {"uv": [7.25, 9.375, 7.125, 9.125], "texture": "#0"},
				"down": {"uv": [4.625, 9.875, 4.5, 10.125], "texture": "#0"}
			}
		},
		{
			"name": "octagon",
			"from": [7.82723, 1.125, 7.10869],
			"to": [9.32723, 16.125, 7.73001],
			"rotation": {"angle": 45, "axis": "y", "origin": [8.57723, 1, 7.41935]},
			"faces": {
				"north": {"uv": [6.25, 7, 6.5, 8.875], "texture": "#0"},
				"east": {"uv": [4.75, 8.875, 4.875, 10.75], "texture": "#0"},
				"south": {"uv": [6.5, 7, 6.75, 8.875], "texture": "#0"},
				"west": {"uv": [8.875, 4.75, 9, 6.625], "texture": "#0"},
				"up": {"uv": [11.125, 5.125, 10.875, 5], "texture": "#0"},
				"down": {"uv": [11.125, 5.125, 10.875, 5.25], "texture": "#0"}
			}
		},
		{
			"name": "octagon",
			"from": [7.82723, 1.125, 7.10869],
			"to": [9.32723, 16.125, 7.73001],
			"rotation": {"angle": 0, "axis": "y", "origin": [8.57723, 1, 7.41935]},
			"faces": {
				"north": {"uv": [1.125, 7.25, 1.375, 9.125], "texture": "#0"},
				"east": {"uv": [4.875, 8.875, 5, 10.75], "texture": "#0"},
				"south": {"uv": [1.375, 7.25, 1.625, 9.125], "texture": "#0"},
				"west": {"uv": [5, 8.875, 5.125, 10.75], "texture": "#0"},
				"up": {"uv": [5.5, 11, 5.25, 10.875], "texture": "#0"},
				"down": {"uv": [11.125, 5.25, 10.875, 5.375], "texture": "#0"}
			}
		},
		{
			"from": [16.92723, 12.5, 12.41935],
			"to": [19.12723, 13, 14.41935],
			"rotation": {"angle": -45, "axis": "y", "origin": [16.57723, -4, 7.41935]},
			"faces": {
				"north": {"uv": [11.125, 4.875, 11.375, 5], "texture": "#0"},
				"east": {"uv": [5, 11.125, 5.25, 11.25], "texture": "#0"},
				"south": {"uv": [4.75, 11.125, 5, 11.25], "texture": "#0"},
				"west": {"uv": [11.125, 4.75, 11.375, 4.875], "texture": "#0"},
				"up": {"uv": [11, 3.5, 10.75, 3.25], "rotation": 180, "texture": "#0"},
				"down": {"uv": [3.75, 10.75, 3.5, 11], "rotation": 180, "texture": "#0"}
			}
		},
		{
			"from": [16.92723, 11.5, 12.41935],
			"to": [19.12723, 12, 14.41935],
			"rotation": {"angle": -45, "axis": "y", "origin": [16.57723, -5, 7.41935]},
			"faces": {
				"north": {"uv": [5.25, 11.125, 5.5, 11.25], "texture": "#0"},
				"east": {"uv": [11.125, 5.25, 11.375, 5.375], "texture": "#0"},
				"south": {"uv": [11.125, 5, 11.375, 5.125], "texture": "#0"},
				"west": {"uv": [11.125, 5.125, 11.375, 5.25], "texture": "#0"},
				"up": {"uv": [11, 3.75, 10.75, 3.5], "rotation": 180, "texture": "#0"},
				"down": {"uv": [11, 3.75, 10.75, 4], "rotation": 180, "texture": "#0"}
			}
		},
		{
			"from": [16.92723, 13.5, 12.41935],
			"to": [19.12723, 14, 14.41935],
			"rotation": {"angle": -45, "axis": "y", "origin": [16.57723, -3, 7.41935]},
			"faces": {
				"north": {"uv": [11.125, 5.5, 11.375, 5.625], "texture": "#0"},
				"east": {"uv": [11.125, 5.625, 11.375, 5.75], "texture": "#0"},
				"south": {"uv": [11.125, 5.375, 11.375, 5.5], "texture": "#0"},
				"west": {"uv": [5.5, 11.125, 5.75, 11.25], "texture": "#0"},
				"up": {"uv": [11, 4.25, 10.75, 4], "rotation": 180, "texture": "#0"},
				"down": {"uv": [5, 10.75, 4.75, 11], "rotation": 180, "texture": "#0"}
			}
		},
		{
			"from": [16.92723, 8.5, 12.41935],
			"to": [19.12723, 9, 14.41935],
			"rotation": {"angle": -45, "axis": "y", "origin": [16.57723, -8, 7.41935]},
			"faces": {
				"north": {"uv": [6, 11.125, 6.25, 11.25], "texture": "#0"},
				"east": {"uv": [6.25, 11.125, 6.5, 11.25], "texture": "#0"},
				"south": {"uv": [5.75, 11.125, 6, 11.25], "texture": "#0"},
				"west": {"uv": [11.125, 5.75, 11.375, 5.875], "texture": "#0"},
				"up": {"uv": [5.25, 11, 5, 10.75], "rotation": 180, "texture": "#0"},
				"down": {"uv": [11, 5.875, 10.75, 6.125], "rotation": 180, "texture": "#0"}
			}
		},
		{
			"from": [16.92723, 10.5, 12.41935],
			"to": [19.12723, 11, 14.41935],
			"rotation": {"angle": -45, "axis": "y", "origin": [16.57723, -6, 7.41935]},
			"faces": {
				"north": {"uv": [6.75, 11.125, 7, 11.25], "texture": "#0"},
				"east": {"uv": [11.125, 6.75, 11.375, 6.875], "texture": "#0"},
				"south": {"uv": [6.5, 11.125, 6.75, 11.25], "texture": "#0"},
				"west": {"uv": [11.125, 6.625, 11.375, 6.75], "texture": "#0"},
				"up": {"uv": [11, 6.375, 10.75, 6.125], "rotation": 180, "texture": "#0"},
				"down": {"uv": [11, 6.375, 10.75, 6.625], "rotation": 180, "texture": "#0"}
			}
		},
		{
			"from": [16.92723, 9.5, 12.41935],
			"to": [19.12723, 10, 14.41935],
			"rotation": {"angle": -45, "axis": "y", "origin": [16.57723, -7, 7.41935]},
			"faces": {
				"north": {"uv": [11.125, 7, 11.375, 7.125], "texture": "#0"},
				"east": {"uv": [11.125, 7.125, 11.375, 7.25], "texture": "#0"},
				"south": {"uv": [11.125, 6.875, 11.375, 7], "texture": "#0"},
				"west": {"uv": [7, 11.125, 7.25, 11.25], "texture": "#0"},
				"up": {"uv": [6.875, 11, 6.625, 10.75], "rotation": 180, "texture": "#0"},
				"down": {"uv": [7.125, 10.75, 6.875, 11], "rotation": 180, "texture": "#0"}
			}
		},
		{
			"from": [16.92723, 4.5, 12.41935],
			"to": [19.12723, 5, 14.41935],
			"rotation": {"angle": -45, "axis": "y", "origin": [16.57723, -12, 7.41935]},
			"faces": {
				"north": {"uv": [11.125, 7.375, 11.375, 7.5], "texture": "#0"},
				"east": {"uv": [7.5, 11.125, 7.75, 11.25], "texture": "#0"},
				"south": {"uv": [7.25, 11.125, 7.5, 11.25], "texture": "#0"},
				"west": {"uv": [11.125, 7.25, 11.375, 7.375], "texture": "#0"},
				"up": {"uv": [7.375, 11, 7.125, 10.75], "rotation": 180, "texture": "#0"},
				"down": {"uv": [7.625, 10.75, 7.375, 11], "rotation": 180, "texture": "#0"}
			}
		},
		{
			"from": [16.92723, 3.5, 12.41935],
			"to": [19.12723, 4, 14.41935],
			"rotation": {"angle": -45, "axis": "y", "origin": [16.57723, -13, 7.41935]},
			"faces": {
				"north": {"uv": [7.75, 11.125, 8, 11.25], "texture": "#0"},
				"east": {"uv": [11.125, 7.75, 11.375, 7.875], "texture": "#0"},
				"south": {"uv": [11.125, 7.5, 11.375, 7.625], "texture": "#0"},
				"west": {"uv": [11.125, 7.625, 11.375, 7.75], "texture": "#0"},
				"up": {"uv": [7.875, 11, 7.625, 10.75], "rotation": 180, "texture": "#0"},
				"down": {"uv": [8.125, 10.75, 7.875, 11], "rotation": 180, "texture": "#0"}
			}
		},
		{
			"from": [16.92723, 6.5, 12.41935],
			"to": [19.12723, 7, 14.41935],
			"rotation": {"angle": -45, "axis": "y", "origin": [16.57723, -10, 7.41935]},
			"faces": {
				"north": {"uv": [11.125, 8, 11.375, 8.125], "texture": "#0"},
				"east": {"uv": [11.125, 8.125, 11.375, 8.25], "texture": "#0"},
				"south": {"uv": [11.125, 7.875, 11.375, 8], "texture": "#0"},
				"west": {"uv": [8, 11.125, 8.25, 11.25], "texture": "#0"},
				"up": {"uv": [8.375, 11, 8.125, 10.75], "rotation": 180, "texture": "#0"},
				"down": {"uv": [8.625, 10.75, 8.375, 11], "rotation": 180, "texture": "#0"}
			}
		},
		{
			"from": [16.92723, 5.5, 12.41935],
			"to": [19.12723, 6, 14.41935],
			"rotation": {"angle": -45, "axis": "y", "origin": [16.57723, -11, 7.41935]},
			"faces": {
				"north": {"uv": [11.125, 8.375, 11.375, 8.5], "texture": "#0"},
				"east": {"uv": [8.5, 11.125, 8.75, 11.25], "texture": "#0"},
				"south": {"uv": [8.25, 11.125, 8.5, 11.25], "texture": "#0"},
				"west": {"uv": [11.125, 8.25, 11.375, 8.375], "texture": "#0"},
				"up": {"uv": [8.875, 11, 8.625, 10.75], "rotation": 180, "texture": "#0"},
				"down": {"uv": [9.125, 10.75, 8.875, 11], "rotation": 180, "texture": "#0"}
			}
		},
		{
			"from": [16.92723, 7.5, 12.41935],
			"to": [19.12723, 8, 14.41935],
			"rotation": {"angle": -45, "axis": "y", "origin": [16.57723, -9, 7.41935]},
			"faces": {
				"north": {"uv": [8.75, 11.125, 9, 11.25], "texture": "#0"},
				"east": {"uv": [11.125, 8.75, 11.375, 8.875], "texture": "#0"},
				"south": {"uv": [11.125, 8.5, 11.375, 8.625], "texture": "#0"},
				"west": {"uv": [11.125, 8.625, 11.375, 8.75], "texture": "#0"},
				"up": {"uv": [9.375, 11, 9.125, 10.75], "rotation": 180, "texture": "#0"},
				"down": {"uv": [9.625, 10.75, 9.375, 11], "rotation": 180, "texture": "#0"}
			}
		},
		{
			"from": [6.77723, 12.5, 3.41935],
			"to": [8.97723, 13, 5.41935],
			"rotation": {"angle": -45, "axis": "y", "origin": [8.57723, -4, -1.58065]},
			"faces": {
				"north": {"uv": [7.5, 11, 7.75, 11.125], "texture": "#0"},
				"east": {"uv": [7.75, 11, 8, 11.125], "texture": "#0"},
				"south": {"uv": [7, 11, 7.25, 11.125], "texture": "#0"},
				"west": {"uv": [7.25, 11, 7.5, 11.125], "texture": "#0"},
				"up": {"uv": [10.875, 9.125, 10.625, 8.875], "rotation": 180, "texture": "#0"},
				"down": {"uv": [10.875, 9.125, 10.625, 9.375], "rotation": 180, "texture": "#0"}
			}
		},
		{
			"from": [6.77723, 11.5, 3.41935],
			"to": [8.97723, 12, 5.41935],
			"rotation": {"angle": -45, "axis": "y", "origin": [8.57723, -5, -1.58065]},
			"faces": {
				"north": {"uv": [8.5, 11, 8.75, 11.125], "texture": "#0"},
				"east": {"uv": [8.75, 11, 9, 11.125], "texture": "#0"},
				"south": {"uv": [8, 11, 8.25, 11.125], "texture": "#0"},
				"west": {"uv": [8.25, 11, 8.5, 11.125], "texture": "#0"},
				"up": {"uv": [10.875, 9.75, 10.625, 9.5], "rotation": 180, "texture": "#0"},
				"down": {"uv": [10.875, 9.75, 10.625, 10], "rotation": 180, "texture": "#0"}
			}
		},
		{
			"from": [6.77723, 13.5, 3.41935],
			"to": [8.97723, 14, 5.41935],
			"rotation": {"angle": -45, "axis": "y", "origin": [8.57723, -3, -1.58065]},
			"faces": {
				"north": {"uv": [9.5, 11, 9.75, 11.125], "texture": "#0"},
				"east": {"uv": [9.75, 11, 10, 11.125], "texture": "#0"},
				"south": {"uv": [9, 11, 9.25, 11.125], "texture": "#0"},
				"west": {"uv": [9.25, 11, 9.5, 11.125], "texture": "#0"},
				"up": {"uv": [10.875, 10.5, 10.625, 10.25], "rotation": 180, "texture": "#0"},
				"down": {"uv": [0.25, 10.75, 0, 11], "rotation": 180, "texture": "#0"}
			}
		},
		{
			"from": [6.77723, 8.5, 3.41935],
			"to": [8.97723, 9, 5.41935],
			"rotation": {"angle": -45, "axis": "y", "origin": [8.57723, -8, -1.58065]},
			"faces": {
				"north": {"uv": [11, 10.125, 11.25, 10.25], "texture": "#0"},
				"east": {"uv": [10.25, 11, 10.5, 11.125], "texture": "#0"},
				"south": {"uv": [10, 11, 10.25, 11.125], "texture": "#0"},
				"west": {"uv": [11, 10, 11.25, 10.125], "texture": "#0"},
				"up": {"uv": [11, 0.25, 10.75, 0], "rotation": 180, "texture": "#0"},
				"down": {"uv": [0.5, 10.75, 0.25, 11], "rotation": 180, "texture": "#0"}
			}
		},
		{
			"from": [6.77723, 10.5, 3.41935],
			"to": [8.97723, 11, 5.41935],
			"rotation": {"angle": -45, "axis": "y", "origin": [8.57723, -6, -1.58065]},
			"faces": {
				"north": {"uv": [11, 10.625, 11.25, 10.75], "texture": "#0"},
				"east": {"uv": [10.75, 11, 11, 11.125], "texture": "#0"},
				"south": {"uv": [10.5, 11, 10.75, 11.125], "texture": "#0"},
				"west": {"uv": [11, 10.5, 11.25, 10.625], "texture": "#0"},
				"up": {"uv": [11, 0.5, 10.75, 0.25], "rotation": 180, "texture": "#0"},
				"down": {"uv": [0.75, 10.75, 0.5, 11], "rotation": 180, "texture": "#0"}
			}
		},
		{
			"from": [6.77723, 9.5, 3.41935],
			"to": [8.97723, 10, 5.41935],
			"rotation": {"angle": -45, "axis": "y", "origin": [8.57723, -7, -1.58065]},
			"faces": {
				"north": {"uv": [0.25, 11.125, 0.5, 11.25], "texture": "#0"},
				"east": {"uv": [0.5, 11.125, 0.75, 11.25], "texture": "#0"},
				"south": {"uv": [11, 11, 11.25, 11.125], "texture": "#0"},
				"west": {"uv": [0, 11.125, 0.25, 11.25], "texture": "#0"},
				"up": {"uv": [11, 0.75, 10.75, 0.5], "rotation": 180, "texture": "#0"},
				"down": {"uv": [11, 0.75, 10.75, 1], "rotation": 180, "texture": "#0"}
			}
		},
		{
			"from": [6.77723, 4.5, 3.41935],
			"to": [8.97723, 5, 5.41935],
			"rotation": {"angle": -45, "axis": "y", "origin": [8.57723, -12, -1.58065]},
			"faces": {
				"north": {"uv": [1.25, 11.125, 1.5, 11.25], "texture": "#0"},
				"east": {"uv": [1.5, 11.125, 1.75, 11.25], "texture": "#0"},
				"south": {"uv": [0.75, 11.125, 1, 11.25], "texture": "#0"},
				"west": {"uv": [1, 11.125, 1.25, 11.25], "texture": "#0"},
				"up": {"uv": [11, 1.25, 10.75, 1], "rotation": 180, "texture": "#0"},
				"down": {"uv": [11, 1.25, 10.75, 1.5], "rotation": 180, "texture": "#0"}
			}
		},
		{
			"from": [6.77723, 3.5, 3.41935],
			"to": [8.97723, 4, 5.41935],
			"rotation": {"angle": -45, "axis": "y", "origin": [8.57723, -13, -1.58065]},
			"faces": {
				"north": {"uv": [2.25, 11.125, 2.5, 11.25], "texture": "#0"},
				"east": {"uv": [2.5, 11.125, 2.75, 11.25], "texture": "#0"},
				"south": {"uv": [1.75, 11.125, 2, 11.25], "texture": "#0"},
				"west": {"uv": [2, 11.125, 2.25, 11.25], "texture": "#0"},
				"up": {"uv": [11, 1.75, 10.75, 1.5], "rotation": 180, "texture": "#0"},
				"down": {"uv": [11, 1.75, 10.75, 2], "rotation": 180, "texture": "#0"}
			}
		},
		{
			"from": [6.77723, 6.5, 3.41935],
			"to": [8.97723, 7, 5.41935],
			"rotation": {"angle": -45, "axis": "y", "origin": [8.57723, -10, -1.58065]},
			"faces": {
				"north": {"uv": [3.25, 11.125, 3.5, 11.25], "texture": "#0"},
				"east": {"uv": [3.5, 11.125, 3.75, 11.25], "texture": "#0"},
				"south": {"uv": [2.75, 11.125, 3, 11.25], "texture": "#0"},
				"west": {"uv": [3, 11.125, 3.25, 11.25], "texture": "#0"},
				"up": {"uv": [11, 2.25, 10.75, 2], "rotation": 180, "texture": "#0"},
				"down": {"uv": [11, 2.25, 10.75, 2.5], "rotation": 180, "texture": "#0"}
			}
		},
		{
			"from": [6.77723, 5.5, 3.41935],
			"to": [8.97723, 6, 5.41935],
			"rotation": {"angle": -45, "axis": "y", "origin": [8.57723, -11, -1.58065]},
			"faces": {
				"north": {"uv": [4.25, 11.125, 4.5, 11.25], "texture": "#0"},
				"east": {"uv": [11.125, 4.25, 11.375, 4.375], "texture": "#0"},
				"south": {"uv": [3.75, 11.125, 4, 11.25], "texture": "#0"},
				"west": {"uv": [4, 11.125, 4.25, 11.25], "texture": "#0"},
				"up": {"uv": [11, 2.75, 10.75, 2.5], "rotation": 180, "texture": "#0"},
				"down": {"uv": [11, 2.75, 10.75, 3], "rotation": 180, "texture": "#0"}
			}
		},
		{
			"from": [6.77723, 7.5, 3.41935],
			"to": [8.97723, 8, 5.41935],
			"rotation": {"angle": -45, "axis": "y", "origin": [8.57723, -9, -1.58065]},
			"faces": {
				"north": {"uv": [11.125, 4.5, 11.375, 4.625], "texture": "#0"},
				"east": {"uv": [11.125, 4.625, 11.375, 4.75], "texture": "#0"},
				"south": {"uv": [11.125, 4.375, 11.375, 4.5], "texture": "#0"},
				"west": {"uv": [4.5, 11.125, 4.75, 11.25], "texture": "#0"},
				"up": {"uv": [11, 3.25, 10.75, 3], "rotation": 180, "texture": "#0"},
				"down": {"uv": [3.5, 10.75, 3.25, 11], "rotation": 180, "texture": "#0"}
			}
		},
		{
			"name": "permanent magnet",
			"from": [5.07723, 3, 11.41935],
			"to": [12.07723, 14, 12.41935],
			"rotation": {"angle": 45, "axis": "y", "origin": [8.57723, -14, 7.41935]},
			"faces": {
				"north": {"uv": [1.75, 5.25, 2.625, 6.625], "texture": "#0"},
				"east": {"uv": [5.25, 9.125, 5.375, 10.5], "texture": "#0"},
				"south": {"uv": [2.625, 5.25, 3.5, 6.625], "texture": "#0"},
				"west": {"uv": [5.375, 9.125, 5.5, 10.5], "texture": "#0"},
				"up": {"uv": [2.5, 10.125, 1.625, 10], "texture": "#0"},
				"down": {"uv": [7.625, 10, 6.75, 10.125], "texture": "#0"}
			}
		},
		{
			"name": "permanent magnet",
			"from": [3.57723, 3, 3.91935],
			"to": [4.57723, 14, 10.91935],
			"rotation": {"angle": -45, "axis": "y", "origin": [8.57723, -14, 7.41935]},
			"faces": {
				"north": {"uv": [3.75, 9.125, 3.875, 10.5], "texture": "#0"},
				"east": {"uv": [0.875, 4, 1.75, 5.375], "texture": "#0"},
				"south": {"uv": [5.125, 9.125, 5.25, 10.5], "texture": "#0"},
				"west": {"uv": [0, 4, 0.875, 5.375], "texture": "#0"},
				"up": {"uv": [9.75, 10, 8.875, 9.875], "rotation": 270, "texture": "#0"},
				"down": {"uv": [10.625, 9.875, 9.75, 10], "rotation": 90, "texture": "#0"}
			}
		},
		{
			"from": [1.57723, 12.5, 3.91935],
			"to": [3.57723, 13, 10.91935],
			"rotation": {"angle": 45, "axis": "y", "origin": [8.57723, -4, 7.41935]},
			"faces": {
				"north": {"uv": [11, 3.75, 11.25, 3.875], "texture": "#0"},
				"east": {"uv": [9.875, 1.375, 10.75, 1.5], "texture": "#0"},
				"south": {"uv": [11, 3.875, 11.25, 4], "texture": "#0"},
				"west": {"uv": [9.875, 1.25, 10.75, 1.375], "texture": "#0"},
				"up": {"uv": [6, 9.125, 5.125, 8.875], "rotation": 270, "texture": "#0"},
				"down": {"uv": [9.75, 6.625, 8.875, 6.875], "rotation": 90, "texture": "#0"}
			}
		},
		{
			"from": [1.57723, 11.5, 3.91935],
			"to": [3.57723, 12, 10.91935],
			"rotation": {"angle": 45, "axis": "y", "origin": [8.57723, -5, 7.41935]},
			"faces": {
				"north": {"uv": [11, 4.125, 11.25, 4.25], "texture": "#0"},
				"east": {"uv": [9.875, 1.875, 10.75, 2], "texture": "#0"},
				"south": {"uv": [4.25, 11, 4.5, 11.125], "texture": "#0"},
				"west": {"uv": [9.875, 1.75, 10.75, 1.875], "texture": "#0"},
				"up": {"uv": [9.75, 7.625, 8.875, 7.375], "rotation": 270, "texture": "#0"},
				"down": {"uv": [9.75, 7.625, 8.875, 7.875], "rotation": 90, "texture": "#0"}
			}
		},
		{
			"from": [1.57723, 13.5, 3.91935],
			"to": [3.57723, 14, 10.91935],
			"rotation": {"angle": 45, "axis": "y", "origin": [8.57723, -3, 7.41935]},
			"faces": {
				"north": {"uv": [4, 11, 4.25, 11.125], "texture": "#0"},
				"east": {"uv": [9.875, 1.625, 10.75, 1.75], "texture": "#0"},
				"south": {"uv": [11, 4, 11.25, 4.125], "texture": "#0"},
				"west": {"uv": [9.875, 1.5, 10.75, 1.625], "texture": "#0"},
				"up": {"uv": [9.75, 7.125, 8.875, 6.875], "rotation": 270, "texture": "#0"},
				"down": {"uv": [9.75, 7.125, 8.875, 7.375], "rotation": 90, "texture": "#0"}
			}
		},
		{
			"from": [1.57723, 8.5, 3.91935],
			"to": [3.57723, 9, 10.91935],
			"rotation": {"angle": 45, "axis": "y", "origin": [8.57723, -8, 7.41935]},
			"faces": {
				"north": {"uv": [5.5, 11, 5.75, 11.125], "texture": "#0"},
				"east": {"uv": [9.875, 2.625, 10.75, 2.75], "texture": "#0"},
				"south": {"uv": [5.75, 11, 6, 11.125], "texture": "#0"},
				"west": {"uv": [9.875, 2.5, 10.75, 2.625], "texture": "#0"},
				"up": {"uv": [9.75, 9.125, 8.875, 8.875], "rotation": 270, "texture": "#0"},
				"down": {"uv": [9.875, 1, 9, 1.25], "rotation": 90, "texture": "#0"}
			}
		},
		{
			"from": [1.57723, 10.5, 3.91935],
			"to": [3.57723, 11, 10.91935],
			"rotation": {"angle": 45, "axis": "y", "origin": [8.57723, -6, 7.41935]},
			"faces": {
				"north": {"uv": [5, 11, 5.25, 11.125], "texture": "#0"},
				"east": {"uv": [9.875, 2.375, 10.75, 2.5], "texture": "#0"},
				"south": {"uv": [5.25, 11, 5.5, 11.125], "texture": "#0"},
				"west": {"uv": [9.875, 2.25, 10.75, 2.375], "texture": "#0"},
				"up": {"uv": [9.75, 8.625, 8.875, 8.375], "rotation": 270, "texture": "#0"},
				"down": {"uv": [9.75, 8.625, 8.875, 8.875], "rotation": 90, "texture": "#0"}
			}
		},
		{
			"from": [1.57723, 9.5, 3.91935],
			"to": [3.57723, 10, 10.91935],
			"rotation": {"angle": 45, "axis": "y", "origin": [8.57723, -7, 7.41935]},
			"faces": {
				"north": {"uv": [4.5, 11, 4.75, 11.125], "texture": "#0"},
				"east": {"uv": [9.875, 2.125, 10.75, 2.25], "texture": "#0"},
				"south": {"uv": [4.75, 11, 5, 11.125], "texture": "#0"},
				"west": {"uv": [9.875, 2, 10.75, 2.125], "texture": "#0"},
				"up": {"uv": [9.75, 8.125, 8.875, 7.875], "rotation": 270, "texture": "#0"},
				"down": {"uv": [9.75, 8.125, 8.875, 8.375], "rotation": 90, "texture": "#0"}
			}
		},
		{
			"from": [1.57723, 4.5, 3.91935],
			"to": [3.57723, 5, 10.91935],
			"rotation": {"angle": 45, "axis": "y", "origin": [8.57723, -12, 7.41935]},
			"faces": {
				"north": {"uv": [11, 6.5, 11.25, 6.625], "texture": "#0"},
				"east": {"uv": [7.625, 9.875, 8.5, 10], "texture": "#0"},
				"south": {"uv": [6.75, 11, 7, 11.125], "texture": "#0"},
				"west": {"uv": [6.75, 9.875, 7.625, 10], "texture": "#0"},
				"up": {"uv": [9.875, 3.5, 9, 3.25], "rotation": 270, "texture": "#0"},
				"down": {"uv": [9.875, 3.5, 9, 3.75], "rotation": 90, "texture": "#0"}
			}
		},
		{
			"from": [1.57723, 3.5, 3.91935],
			"to": [3.57723, 4, 10.91935],
			"rotation": {"angle": 45, "axis": "y", "origin": [8.57723, -13, 7.41935]},
			"faces": {
				"north": {"uv": [11, 6.375, 11.25, 6.5], "texture": "#0"},
				"east": {"uv": [9.875, 3.625, 10.75, 3.75], "texture": "#0"},
				"south": {"uv": [6.5, 11, 6.75, 11.125], "texture": "#0"},
				"west": {"uv": [9.875, 3.5, 10.75, 3.625], "texture": "#0"},
				"up": {"uv": [9.875, 3, 9, 2.75], "rotation": 270, "texture": "#0"},
				"down": {"uv": [9.875, 3, 9, 3.25], "rotation": 90, "texture": "#0"}
			}
		},
		{
			"from": [1.57723, 6.5, 3.91935],
			"to": [3.57723, 7, 10.91935],
			"rotation": {"angle": 45, "axis": "y", "origin": [8.57723, -10, 7.41935]},
			"faces": {
				"north": {"uv": [6.25, 11, 6.5, 11.125], "texture": "#0"},
				"east": {"uv": [9.875, 3.375, 10.75, 3.5], "texture": "#0"},
				"south": {"uv": [11, 6.25, 11.25, 6.375], "texture": "#0"},
				"west": {"uv": [9.875, 3.25, 10.75, 3.375], "texture": "#0"},
				"up": {"uv": [9.875, 2.5, 9, 2.25], "rotation": 270, "texture": "#0"},
				"down": {"uv": [9.875, 2.5, 9, 2.75], "rotation": 90, "texture": "#0"}
			}
		},
		{
			"from": [1.57723, 5.5, 3.91935],
			"to": [3.57723, 6, 10.91935],
			"rotation": {"angle": 45, "axis": "y", "origin": [8.57723, -11, 7.41935]},
			"faces": {
				"north": {"uv": [11, 6, 11.25, 6.125], "texture": "#0"},
				"east": {"uv": [9.875, 3.125, 10.75, 3.25], "texture": "#0"},
				"south": {"uv": [11, 6.125, 11.25, 6.25], "texture": "#0"},
				"west": {"uv": [9.875, 3, 10.75, 3.125], "texture": "#0"},
				"up": {"uv": [9.875, 2, 9, 1.75], "rotation": 270, "texture": "#0"},
				"down": {"uv": [9.875, 2, 9, 2.25], "rotation": 90, "texture": "#0"}
			}
		},
		{
			"from": [1.57723, 7.5, 3.91935],
			"to": [3.57723, 8, 10.91935],
			"rotation": {"angle": 45, "axis": "y", "origin": [8.57723, -9, 7.41935]},
			"faces": {
				"north": {"uv": [11, 5.875, 11.25, 6], "texture": "#0"},
				"east": {"uv": [9.875, 2.875, 10.75, 3], "texture": "#0"},
				"south": {"uv": [6, 11, 6.25, 11.125], "texture": "#0"},
				"west": {"uv": [9.875, 2.75, 10.75, 2.875], "texture": "#0"},
				"up": {"uv": [9.875, 1.5, 9, 1.25], "rotation": 270, "texture": "#0"},
				"down": {"uv": [9.875, 1.5, 9, 1.75], "rotation": 90, "texture": "#0"}
			}
		},
		{
			"name": "hexadecagon",
			"from": [7.38375, 3, 0.41935],
			"to": [9.7707, 14, 2.41935],
			"rotation": {"angle": 0, "axis": "y", "origin": [8.57723, 15.25, 7.41935]},
			"faces": {
				"north": {"uv": [5.25, 7.5, 5.5, 8.875], "texture": "#0"},
				"east": {"uv": [7.5, 5.25, 7.75, 6.625], "texture": "#0"},
				"south": {"uv": [7.5, 6.625, 7.75, 8], "texture": "#0"},
				"west": {"uv": [0, 7.625, 0.25, 9], "texture": "#0"},
				"up": {"uv": [9.625, 10.5, 9.375, 10.25], "texture": "#0"},
				"down": {"uv": [9.875, 10.25, 9.625, 10.5], "texture": "#0"}
			}
		},
		{
			"name": "hexadecagon",
			"from": [7.38375, 3, 1.41935],
			"to": [9.7707, 14, 2.41935],
			"rotation": {"angle": 22.5, "axis": "y", "origin": [8.57723, 15.25, 7.41935]},
			"faces": {
				"north": {"uv": [0.25, 7.625, 0.5, 9], "texture": "#0"},
				"east": {"uv": [3.25, 9.125, 3.375, 10.5], "texture": "#0"},
				"south": {"uv": [0.5, 7.625, 0.75, 9], "texture": "#0"},
				"west": {"uv": [3.375, 9.125, 3.5, 10.5], "texture": "#0"},
				"up": {"uv": [11.125, 5.5, 10.875, 5.375], "texture": "#0"},
				"down": {"uv": [5.75, 10.875, 5.5, 11], "texture": "#0"}
			}
		},
		{
			"name": "hexadecagon",
			"from": [2.57723, 3, 6.22588],
			"to": [4.57723, 14, 8.61282],
			"rotation": {"angle": 45, "axis": "y", "origin": [8.57723, 15.25, 7.41935]},
			"faces": {
				"north": {"uv": [7.75, 1.25, 8, 2.625], "texture": "#0"},
				"east": {"uv": [2.625, 7.75, 2.875, 9.125], "texture": "#0"},
				"south": {"uv": [2.875, 7.75, 3.125, 9.125], "texture": "#0"},
				"west": {"uv": [7.625, 3.875, 7.875, 5.25], "texture": "#0"},
				"up": {"uv": [10.125, 10.5, 9.875, 10.25], "rotation": 270, "texture": "#0"},
				"down": {"uv": [10.375, 10.25, 10.125, 10.5], "rotation": 90, "texture": "#0"}
			}
		},
		{
			"name": "hexadecagon",
			"from": [7.38375, 3, 11.41935],
			"to": [9.7707, 14, 13.41935],
			"rotation": {"angle": -22.5, "axis": "y", "origin": [8.57723, 15.25, 7.41935]},
			"faces": {
				"north": {"uv": [3.125, 7.75, 3.375, 9.125], "texture": "#0"},
				"east": {"uv": [3.375, 7.75, 3.625, 9.125], "texture": "#0"},
				"south": {"uv": [3.625, 7.75, 3.875, 9.125], "texture": "#0"},
				"west": {"uv": [7.75, 5.25, 8, 6.625], "texture": "#0"},
				"up": {"uv": [1, 10.625, 0.75, 10.375], "texture": "#0"},
				"down": {"uv": [1.875, 10.375, 1.625, 10.625], "texture": "#0"}
			}
		},
		{
			"name": "hexadecagon",
			"from": [12.57723, 3, 6.22588],
			"to": [14.57723, 14, 8.61282],
			"rotation": {"angle": -45, "axis": "y", "origin": [8.57723, 15.25, 7.41935]},
			"faces": {
				"north": {"uv": [6.75, 7.75, 7, 9.125], "texture": "#0"},
				"east": {"uv": [7, 7.75, 7.25, 9.125], "texture": "#0"},
				"south": {"uv": [7.875, 2.625, 8.125, 4], "texture": "#0"},
				"west": {"uv": [7.75, 6.625, 8, 8], "texture": "#0"},
				"up": {"uv": [2.125, 10.625, 1.875, 10.375], "rotation": 270, "texture": "#0"},
				"down": {"uv": [2.375, 10.375, 2.125, 10.625], "rotation": 90, "texture": "#0"}
			}
		},
		{
			"name": "hexadecagon",
			"from": [1.57723, 3, 6.22588],
			"to": [4.57723, 14, 8.61282],
			"rotation": {"angle": 0, "axis": "y", "origin": [8.57723, 15.25, 7.41935]},
			"faces": {
				"north": {"uv": [7, 3.875, 7.375, 5.25], "texture": "#0"},
				"east": {"uv": [8, 1.25, 8.25, 2.625], "texture": "#0"},
				"south": {"uv": [0.75, 6.875, 1.125, 8.25], "texture": "#0"},
				"west": {"uv": [8, 4, 8.25, 5.375], "texture": "#0"},
				"up": {"uv": [3.5, 7, 3.25, 6.625], "rotation": 90, "texture": "#0"},
				"down": {"uv": [7, 2.375, 6.75, 2.75], "rotation": 270, "texture": "#0"}
			}
		},
		{
			"name": "hexadecagon",
			"from": [7.38375, 3, 11.41935],
			"to": [9.7707, 14, 13.41935],
			"rotation": {"angle": 22.5, "axis": "y", "origin": [8.57723, 15.25, 7.41935]},
			"faces": {
				"north": {"uv": [8, 5.375, 8.25, 6.75], "texture": "#0"},
				"east": {"uv": [8, 6.75, 8.25, 8.125], "texture": "#0"},
				"south": {"uv": [7.25, 8, 7.5, 9.375], "texture": "#0"},
				"west": {"uv": [7.5, 8, 7.75, 9.375], "texture": "#0"},
				"up": {"uv": [2.625, 10.625, 2.375, 10.375], "texture": "#0"},
				"down": {"uv": [4.125, 10.375, 3.875, 10.625], "texture": "#0"}
			}
		},
		{
			"name": "hexadecagon",
			"from": [7.38375, 3, 1.41935],
			"to": [9.7707, 14, 3.41935],
			"rotation": {"angle": 45, "axis": "y", "origin": [8.57723, 15.25, 7.41935]},
			"faces": {
				"north": {"uv": [8, 8.125, 8.25, 9.5], "texture": "#0"},
				"east": {"uv": [8.25, 0, 8.5, 1.375], "texture": "#0"},
				"south": {"uv": [7.75, 8, 8, 9.375], "texture": "#0"},
				"west": {"uv": [8.125, 2.625, 8.375, 4], "texture": "#0"},
				"up": {"uv": [4.375, 10.625, 4.125, 10.375], "rotation": 180, "texture": "#0"},
				"down": {"uv": [4.625, 10.375, 4.375, 10.625], "rotation": 180, "texture": "#0"}
			}
		},
		{
			"name": "hexadecagon",
			"from": [2.57723, 3, 6.22588],
			"to": [4.57723, 14, 8.61282],
			"rotation": {"angle": -22.5, "axis": "y", "origin": [8.57723, 15.25, 7.41935]},
			"faces": {
				"north": {"uv": [0.75, 8.25, 1, 9.625], "texture": "#0"},
				"east": {"uv": [8.25, 4, 8.5, 5.375], "texture": "#0"},
				"south": {"uv": [8.25, 5.375, 8.5, 6.75], "texture": "#0"},
				"west": {"uv": [8.25, 6.75, 8.5, 8.125], "texture": "#0"},
				"up": {"uv": [5.75, 10.625, 5.5, 10.375], "texture": "#0"},
				"down": {"uv": [6, 10.375, 5.75, 10.625], "texture": "#0"}
			}
		},
		{
			"name": "hexadecagon",
			"from": [7.38375, 3, 11.41935],
			"to": [9.7707, 14, 14.41935],
			"rotation": {"angle": 0, "axis": "y", "origin": [8.57723, 15.25, 7.41935]},
			"faces": {
				"north": {"uv": [8.25, 8.125, 8.5, 9.5], "texture": "#0"},
				"east": {"uv": [4.375, 7, 4.75, 8.375], "texture": "#0"},
				"south": {"uv": [8.375, 1.375, 8.625, 2.75], "texture": "#0"},
				"west": {"uv": [4, 7, 4.375, 8.375], "texture": "#0"},
				"up": {"uv": [5.875, 9.375, 5.5, 9.125], "rotation": 270, "texture": "#0"},
				"down": {"uv": [7.125, 9.125, 6.75, 9.375], "rotation": 90, "texture": "#0"}
			}
		},
		{
			"name": "hexadecagon",
			"from": [2.57723, 3, 6.22588],
			"to": [4.57723, 14, 8.61282],
			"rotation": {"angle": 22.5, "axis": "y", "origin": [8.57723, 15.25, 7.41935]},
			"faces": {
				"north": {"uv": [3.875, 8.375, 4.125, 9.75], "texture": "#0"},
				"east": {"uv": [4.125, 8.375, 4.375, 9.75], "texture": "#0"},
				"south": {"uv": [4.375, 8.375, 4.625, 9.75], "texture": "#0"},
				"west": {"uv": [8.5, 0, 8.75, 1.375], "texture": "#0"},
				"up": {"uv": [10.625, 9.375, 10.375, 9.125], "texture": "#0"},
				"down": {"uv": [10.625, 10.25, 10.375, 10.5], "texture": "#0"}
			}
		},
		{
			"name": "hexadecagon",
			"from": [13.57723, 3, 6.22588],
			"to": [14.57723, 14, 8.61282],
			"rotation": {"angle": -22.5, "axis": "y", "origin": [8.57723, 15.25, 7.41935]},
			"faces": {
				"north": {"uv": [3.5, 9.125, 3.625, 10.5], "texture": "#0"},
				"east": {"uv": [8.5, 2.75, 8.75, 4.125], "texture": "#0"},
				"south": {"uv": [3.625, 9.125, 3.75, 10.5], "texture": "#0"},
				"west": {"uv": [8.5, 4.125, 8.75, 5.5], "texture": "#0"},
				"up": {"uv": [6, 10.125, 5.875, 9.875], "texture": "#0"},
				"down": {"uv": [2.625, 10, 2.5, 10.25], "texture": "#0"}
			}
		},
		{
			"name": "hexadecagon",
			"from": [13.57723, 3, 6.22588],
			"to": [15.57723, 14, 8.61282],
			"rotation": {"angle": 0, "axis": "y", "origin": [8.57723, 15.25, 7.41935]},
			"faces": {
				"north": {"uv": [8.5, 5.5, 8.75, 6.875], "texture": "#0"},
				"east": {"uv": [8.5, 6.875, 8.75, 8.25], "texture": "#0"},
				"south": {"uv": [8.5, 8.25, 8.75, 9.625], "texture": "#0"},
				"west": {"uv": [8.625, 1.375, 8.875, 2.75], "texture": "#0"},
				"up": {"uv": [3.5, 10.75, 3.25, 10.5], "texture": "#0"},
				"down": {"uv": [3.75, 10.5, 3.5, 10.75], "texture": "#0"}
			}
		},
		{
			"name": "panel1",
			"from": [12.57723, 3, 6.22588],
			"to": [14.57723, 14, 8.61282],
			"rotation": {"angle": 22.5, "axis": "y", "origin": [8.57723, 15.25, 7.41935]},
			"faces": {
				"north": {"uv": [1.625, 8.625, 1.875, 10], "texture": "#0"},
				"east": {"uv": [1.875, 8.625, 2.125, 10], "texture": "#0"},
				"south": {"uv": [2.125, 8.625, 2.375, 10], "texture": "#0"},
				"west": {"uv": [2.375, 8.625, 2.625, 10], "texture": "#0"},
				"up": {"uv": [5.375, 10.75, 5.125, 10.5], "texture": "#0"},
				"down": {"uv": [7, 10.5, 6.75, 10.75], "texture": "#0"}
			}
		},
		{
			"name": "panel2",
			"from": [12.57723, 3, 6.22588],
			"to": [14.57723, 14, 8.61282],
			"rotation": {"angle": 45, "axis": "y", "origin": [8.57723, 15.25, 7.41935]},
			"faces": {
				"north": {"uv": [2.375, 7.25, 2.625, 8.625], "texture": "#0"},
				"east": {"uv": [1.625, 7.25, 1.875, 8.625], "texture": "#0"},
				"south": {"uv": [1.875, 7.25, 2.125, 8.625], "texture": "#0"},
				"west": {"uv": [2.125, 7.25, 2.375, 8.625], "texture": "#0"},
				"up": {"uv": [8.5, 10.5, 8.25, 10.25], "rotation": 90, "texture": "#0"},
				"down": {"uv": [8.75, 10.25, 8.5, 10.5], "rotation": 270, "texture": "#0"}
			}
		},
		{
			"name": "panel3",
			"from": [7.38375, 3, 1.41935],
			"to": [9.7707, 14, 3.41935],
			"rotation": {"angle": -22.5, "axis": "y", "origin": [8.57723, 15.25, 7.41935]},
			"faces": {
				"north": {"uv": [7.25, 5.25, 7.5, 6.625], "texture": "#0"},
				"east": {"uv": [7.25, 6.625, 7.5, 8], "texture": "#0"},
				"south": {"uv": [7.375, 3.875, 7.625, 5.25], "texture": "#0"},
				"west": {"uv": [5, 7.5, 5.25, 8.875], "texture": "#0"},
				"up": {"uv": [9.125, 10.5, 8.875, 10.25], "texture": "#0"},
				"down": {"uv": [9.375, 10.25, 9.125, 10.5], "texture": "#0"}
			}
		},
		{
			"from": [5.07723, 14, 11.41935],
			"to": [12.07723, 15, 12.41935],
			"rotation": {"angle": 45, "axis": "y", "origin": [8.57723, -2, 7.41935]},
			"faces": {
				"north": {"uv": [9.75, 7.875, 10.625, 8], "texture": "#0"},
				"east": {"uv": [2.5, 10.25, 2.625, 10.375], "texture": "#0"},
				"south": {"uv": [9.75, 8, 10.625, 8.125], "texture": "#0"},
				"west": {"uv": [4.5, 10.25, 4.625, 10.375], "texture": "#0"},
				"up": {"uv": [10.625, 8.25, 9.75, 8.125], "texture": "#0"},
				"down": {"uv": [10.625, 8.25, 9.75, 8.375], "texture": "#0"}
			}
		},
		{
			"from": [5.07723, 14, 2.41935],
			"to": [12.07723, 15, 3.41935],
			"rotation": {"angle": -45, "axis": "y", "origin": [8.57723, -2, 7.41935]},
			"faces": {
				"north": {"uv": [9.75, 8.375, 10.625, 8.5], "texture": "#0"},
				"east": {"uv": [1, 10.375, 1.125, 10.5], "texture": "#0"},
				"south": {"uv": [9.75, 8.5, 10.625, 8.625], "texture": "#0"},
				"west": {"uv": [4.625, 10.375, 4.75, 10.5], "texture": "#0"},
				"up": {"uv": [10.625, 8.75, 9.75, 8.625], "texture": "#0"},
				"down": {"uv": [10.625, 8.75, 9.75, 8.875], "texture": "#0"}
			}
		},
		{
			"from": [5.07723, 14, 2.41935],
			"to": [12.07723, 15, 3.41935],
			"rotation": {"angle": 45, "axis": "y", "origin": [8.57723, -2, 7.41935]},
			"faces": {
				"north": {"uv": [8.875, 9.75, 9.75, 9.875], "texture": "#0"},
				"east": {"uv": [1, 10.5, 1.125, 10.625], "texture": "#0"},
				"south": {"uv": [9.75, 8.875, 10.625, 9], "texture": "#0"},
				"west": {"uv": [3.75, 10.5, 3.875, 10.625], "texture": "#0"},
				"up": {"uv": [10.625, 9.125, 9.75, 9], "texture": "#0"},
				"down": {"uv": [10.625, 9.5, 9.75, 9.625], "texture": "#0"}
			}
		},
		{
			"from": [5.07723, 14, 11.41935],
			"to": [12.07723, 15, 12.41935],
			"rotation": {"angle": -45, "axis": "y", "origin": [8.57723, -2, 7.41935]},
			"faces": {
				"north": {"uv": [9.75, 9.625, 10.625, 9.75], "texture": "#0"},
				"east": {"uv": [4.625, 10.5, 4.75, 10.625], "texture": "#0"},
				"south": {"uv": [9.75, 9.75, 10.625, 9.875], "texture": "#0"},
				"west": {"uv": [5.375, 10.5, 5.5, 10.625], "texture": "#0"},
				"up": {"uv": [10.75, 1.125, 9.875, 1], "texture": "#0"},
				"down": {"uv": [10.75, 1.125, 9.875, 1.25], "texture": "#0"}
			}
		},
		{
			"from": [4.07723, 14, 0.91935],
			"to": [5.82723, 15, 2.66935],
			"rotation": {"angle": 45, "axis": "y", "origin": [10.57723, 15, 7.41935]},
			"faces": {
				"north": {"uv": [1.75, 10.875, 2, 11], "texture": "#0"},
				"east": {"uv": [2, 10.875, 2.25, 11], "texture": "#0"},
				"south": {"uv": [2.25, 10.875, 2.5, 11], "texture": "#0"},
				"west": {"uv": [2.5, 10.875, 2.75, 11], "texture": "#0"},
				"up": {"uv": [5.75, 10.375, 5.5, 10.125], "texture": "#0"},
				"down": {"uv": [6, 10.125, 5.75, 10.375], "texture": "#0"}
			}
		},
		{
			"from": [4.07723, 14, 9.41935],
			"to": [5.82723, 15, 11.16935],
			"rotation": {"angle": 45, "axis": "y", "origin": [10.57723, 15, 7.41935]},
			"faces": {
				"north": {"uv": [2.75, 10.875, 3, 11], "texture": "#0"},
				"east": {"uv": [3, 10.875, 3.25, 11], "texture": "#0"},
				"south": {"uv": [3.75, 10.875, 4, 11], "texture": "#0"},
				"west": {"uv": [4, 10.875, 4.25, 11], "texture": "#0"},
				"up": {"uv": [7, 10.5, 6.75, 10.25], "texture": "#0"},
				"down": {"uv": [7.25, 10.25, 7, 10.5], "texture": "#0"}
			}
		},
		{
			"from": [12.57723, 14, 9.41935],
			"to": [14.32723, 15, 11.16935],
			"rotation": {"angle": 45, "axis": "y", "origin": [10.57723, 15, 7.41935]},
			"faces": {
				"north": {"uv": [4.25, 10.875, 4.5, 11], "texture": "#0"},
				"east": {"uv": [10.875, 4.25, 11.125, 4.375], "texture": "#0"},
				"south": {"uv": [10.875, 4.375, 11.125, 4.5], "texture": "#0"},
				"west": {"uv": [4.5, 10.875, 4.75, 11], "texture": "#0"},
				"up": {"uv": [7.5, 10.5, 7.25, 10.25], "texture": "#0"},
				"down": {"uv": [7.75, 10.25, 7.5, 10.5], "texture": "#0"}
			}
		},
		{
			"from": [12.57723, 14, 0.66935],
			"to": [14.32723, 15, 2.41935],
			"rotation": {"angle": 45, "axis": "y", "origin": [10.57723, 15, 7.41935]},
			"faces": {
				"north": {"uv": [10.875, 4.5, 11.125, 4.625], "texture": "#0"},
				"east": {"uv": [10.875, 4.625, 11.125, 4.75], "texture": "#0"},
				"south": {"uv": [10.875, 4.75, 11.125, 4.875], "texture": "#0"},
				"west": {"uv": [10.875, 4.875, 11.125, 5], "texture": "#0"},
				"up": {"uv": [8, 10.5, 7.75, 10.25], "texture": "#0"},
				"down": {"uv": [8.25, 10.25, 8, 10.5], "texture": "#0"}
			}
		},
		{
			"from": [5.07723, 2, 11.41935],
			"to": [12.07723, 3, 12.41935],
			"rotation": {"angle": -45, "axis": "y", "origin": [8.57723, -14, 7.41935]},
			"faces": {
				"north": {"uv": [8.875, 9.5, 9.75, 9.625], "texture": "#0"},
				"east": {"uv": [1.125, 7.125, 1.25, 7.25], "texture": "#0"},
				"south": {"uv": [6.75, 9.625, 7.625, 9.75], "texture": "#0"},
				"west": {"uv": [7.75, 3.75, 7.875, 3.875], "texture": "#0"},
				"up": {"uv": [8.5, 9.75, 7.625, 9.625], "texture": "#0"},
				"down": {"uv": [9.75, 9.625, 8.875, 9.75], "texture": "#0"}
			}
		},
		{
			"from": [5.07723, 2, 2.41935],
			"to": [12.07723, 3, 3.41935],
			"rotation": {"angle": -45, "axis": "y", "origin": [8.57723, -14, 7.41935]},
			"faces": {
				"north": {"uv": [9.75, 6.625, 10.625, 6.75], "texture": "#0"},
				"east": {"uv": [7.875, 5.125, 8, 5.25], "texture": "#0"},
				"south": {"uv": [6.75, 9.75, 7.625, 9.875], "texture": "#0"},
				"west": {"uv": [3.875, 8.25, 4, 8.375], "texture": "#0"},
				"up": {"uv": [10.625, 6.875, 9.75, 6.75], "texture": "#0"},
				"down": {"uv": [10.625, 6.875, 9.75, 7], "texture": "#0"}
			}
		},
		{
			"from": [5.07723, 2, 2.41935],
			"to": [12.07723, 3, 3.41935],
			"rotation": {"angle": 45, "axis": "y", "origin": [8.57723, -14, 7.41935]},
			"faces": {
				"north": {"uv": [9.75, 7, 10.625, 7.125], "texture": "#0"},
				"east": {"uv": [8.75, 1.25, 8.875, 1.375], "texture": "#0"},
				"south": {"uv": [9.75, 7.125, 10.625, 7.25], "texture": "#0"},
				"west": {"uv": [4.5, 10.125, 4.625, 10.25], "texture": "#0"},
				"up": {"uv": [10.625, 7.375, 9.75, 7.25], "texture": "#0"},
				"down": {"uv": [10.625, 7.375, 9.75, 7.5], "texture": "#0"}
			}
		},
		{
			"from": [5.07723, 2, 11.41935],
			"to": [12.07723, 3, 12.41935],
			"rotation": {"angle": 45, "axis": "y", "origin": [8.57723, -14, 7.41935]},
			"faces": {
				"north": {"uv": [9.75, 7.5, 10.625, 7.625], "texture": "#0"},
				"east": {"uv": [8.625, 10.125, 8.75, 10.25], "texture": "#0"},
				"south": {"uv": [7.625, 9.75, 8.5, 9.875], "texture": "#0"},
				"west": {"uv": [1, 10.25, 1.125, 10.375], "texture": "#0"},
				"up": {"uv": [10.625, 7.75, 9.75, 7.625], "texture": "#0"},
				"down": {"uv": [10.625, 7.75, 9.75, 7.875], "texture": "#0"}
			}
		},
		{
			"from": [4.07723, 2, 0.91935],
			"to": [5.82723, 3, 2.66935],
			"rotation": {"angle": 45, "axis": "y", "origin": [10.57723, 3, 7.41935]},
			"faces": {
				"north": {"uv": [1.75, 5.125, 2, 5.25], "texture": "#0"},
				"east": {"uv": [7.75, 9.375, 8, 9.5], "texture": "#0"},
				"south": {"uv": [8.25, 10, 8.5, 10.125], "texture": "#0"},
				"west": {"uv": [9.625, 10.75, 9.875, 10.875], "texture": "#0"},
				"up": {"uv": [7, 3, 6.75, 2.75], "texture": "#0"},
				"down": {"uv": [7.25, 5.25, 7, 5.5], "texture": "#0"}
			}
		},
		{
			"from": [4.07723, 2, 9.41935],
			"to": [5.82723, 3, 11.16935],
			"rotation": {"angle": 45, "axis": "y", "origin": [10.57723, 3, 7.41935]},
			"faces": {
				"north": {"uv": [9.875, 10.75, 10.125, 10.875], "texture": "#0"},
				"east": {"uv": [10.75, 10, 11, 10.125], "texture": "#0"},
				"south": {"uv": [10.125, 10.75, 10.375, 10.875], "texture": "#0"},
				"west": {"uv": [10.75, 10.125, 11, 10.25], "texture": "#0"},
				"up": {"uv": [1, 9.875, 0.75, 9.625], "texture": "#0"},
				"down": {"uv": [8.75, 9.625, 8.5, 9.875], "texture": "#0"}
			}
		},
		{
			"from": [12.57723, 2, 9.41935],
			"to": [14.32723, 3, 11.16935],
			"rotation": {"angle": 45, "axis": "y", "origin": [10.57723, 3, 7.41935]},
			"faces": {
				"north": {"uv": [10.375, 10.75, 10.625, 10.875], "texture": "#0"},
				"east": {"uv": [10.75, 10.5, 11, 10.625], "texture": "#0"},
				"south": {"uv": [10.625, 10.75, 10.875, 10.875], "texture": "#0"},
				"west": {"uv": [10.75, 10.625, 11, 10.75], "texture": "#0"},
				"up": {"uv": [1, 10.125, 0.75, 9.875], "texture": "#0"},
				"down": {"uv": [8.75, 9.875, 8.5, 10.125], "texture": "#0"}
			}
		},
		{
			"from": [12.57723, 2, 0.66935],
			"to": [14.32723, 3, 2.41935],
			"rotation": {"angle": 45, "axis": "y", "origin": [10.57723, 3, 7.41935]},
			"faces": {
				"north": {"uv": [0.75, 10.875, 1, 11], "texture": "#0"},
				"east": {"uv": [1, 10.875, 1.25, 11], "texture": "#0"},
				"south": {"uv": [1.25, 10.875, 1.5, 11], "texture": "#0"},
				"west": {"uv": [1.5, 10.875, 1.75, 11], "texture": "#0"},
				"up": {"uv": [1, 10.375, 0.75, 10.125], "texture": "#0"},
				"down": {"uv": [2.5, 10.125, 2.25, 10.375], "texture": "#0"}
			}
		},
		{
			"name": "octagon",
			"from": [6.09195, 1, 1.41935],
			"to": [11.06251, 2, 13.41935],
			"rotation": {"angle": 45, "axis": "y", "origin": [8.57723, -14, 7.41935]},
			"faces": {
				"north": {"uv": [7.375, 10.125, 8, 10.25], "texture": "#0"},
				"east": {"uv": [9.125, 5.375, 10.625, 5.5], "texture": "#0"},
				"south": {"uv": [8, 10.125, 8.625, 10.25], "texture": "#0"},
				"west": {"uv": [9.125, 5.5, 10.625, 5.625], "texture": "#0"},
				"up": {"uv": [6.125, 7, 5.5, 5.5], "texture": "#0"},
				"down": {"uv": [6.75, 0, 6.125, 1.5], "texture": "#0"}
			}
		},
		{
			"name": "octagon",
			"from": [6.09195, 1, 1.41935],
			"to": [11.06251, 2, 13.41935],
			"rotation": {"angle": 0, "axis": "y", "origin": [8.57723, -14, 7.41935]},
			"faces": {
				"north": {"uv": [8.875, 10.125, 9.5, 10.25], "texture": "#0"},
				"east": {"uv": [9.125, 5.625, 10.625, 5.75], "texture": "#0"},
				"south": {"uv": [9.5, 10.125, 10.125, 10.25], "texture": "#0"},
				"west": {"uv": [9.125, 5.75, 10.625, 5.875], "texture": "#0"},
				"up": {"uv": [6.75, 3, 6.125, 1.5], "texture": "#0"},
				"down": {"uv": [6.75, 5.5, 6.125, 7], "texture": "#0"}
			}
		},
		{
			"name": "octagon",
			"from": [2.57723, 1, 4.93407],
			"to": [14.57723, 2, 9.90463],
			"rotation": {"angle": 45, "axis": "y", "origin": [8.57723, -14, 7.41935]},
			"faces": {
				"north": {"uv": [9.125, 5.875, 10.625, 6], "texture": "#0"},
				"east": {"uv": [10.125, 10, 10.75, 10.125], "texture": "#0"},
				"south": {"uv": [8.875, 9.125, 10.375, 9.25], "texture": "#0"},
				"west": {"uv": [10.125, 10.125, 10.75, 10.25], "texture": "#0"},
				"up": {"uv": [5, 7, 3.5, 6.375], "texture": "#0"},
				"down": {"uv": [2.75, 6.625, 1.25, 7.25], "texture": "#0"}
			}
		},
		{
			"name": "octagon",
			"from": [2.57723, 1, 4.93407],
			"to": [14.57723, 2, 9.90463],
			"rotation": {"angle": 0, "axis": "y", "origin": [8.57723, -14, 7.41935]},
			"faces": {
				"north": {"uv": [8.875, 9.25, 10.375, 9.375], "texture": "#0"},
				"east": {"uv": [1.625, 10.25, 2.25, 10.375], "texture": "#0"},
				"south": {"uv": [8.875, 9.375, 10.375, 9.5], "texture": "#0"},
				"west": {"uv": [3.875, 10.25, 4.5, 10.375], "texture": "#0"},
				"up": {"uv": [8.25, 0.625, 6.75, 0], "texture": "#0"},
				"down": {"uv": [8.25, 0.625, 6.75, 1.25], "texture": "#0"}
			}
		},
		{
			"name": "octagon",
			"from": [6.09195, 15.2, 1.41935],
			"to": [11.06251, 16, 13.41935],
			"rotation": {"angle": 45, "axis": "y", "origin": [8.57723, 0.5, 7.41935]},
			"faces": {
				"north": {"uv": [3.875, 9.875, 4.5, 10], "texture": "#0"},
				"east": {"uv": [9.125, 4.375, 10.625, 4.5], "texture": "#0"},
				"south": {"uv": [3.875, 10, 4.5, 10.125], "texture": "#0"},
				"west": {"uv": [9.125, 4.5, 10.625, 4.625], "texture": "#0"},
				"up": {"uv": [0.625, 6.875, 0, 5.375], "texture": "#0"},
				"down": {"uv": [1.25, 5.375, 0.625, 6.875], "texture": "#0"}
			}
		},
		{
			"name": "octagon",
			"from": [6.09195, 15.2, 1.41935],
			"to": [11.06251, 16, 13.41935],
			"rotation": {"angle": 0, "axis": "y", "origin": [8.57723, 0.5, 7.41935]},
			"faces": {
				"north": {"uv": [7.625, 10, 8.25, 10.125], "texture": "#0"},
				"east": {"uv": [9.125, 4.625, 10.625, 4.75], "texture": "#0"},
				"south": {"uv": [8.875, 10, 9.5, 10.125], "texture": "#0"},
				"west": {"uv": [9.125, 4.75, 10.625, 4.875], "texture": "#0"},
				"up": {"uv": [6.125, 1.5, 5.5, 0], "texture": "#0"},
				"down": {"uv": [6.125, 1.5, 5.5, 3], "texture": "#0"}
			}
		},
		{
			"name": "octagon",
			"from": [2.57723, 15.2, 4.93407],
			"to": [14.57723, 16, 9.90463],
			"rotation": {"angle": 45, "axis": "y", "origin": [8.57723, 0.5, 7.41935]},
			"faces": {
				"north": {"uv": [9.125, 4.875, 10.625, 5], "texture": "#0"},
				"east": {"uv": [9.5, 10, 10.125, 10.125], "texture": "#0"},
				"south": {"uv": [9.125, 5, 10.625, 5.125], "texture": "#0"},
				"west": {"uv": [1.625, 10.125, 2.25, 10.25], "texture": "#0"},
				"up": {"uv": [7, 3.625, 5.5, 3], "texture": "#0"},
				"down": {"uv": [7, 3.625, 5.5, 4.25], "texture": "#0"}
			}
		},
		{
			"name": "octagon",
			"from": [2.57723, 15.2, 4.93407],
			"to": [14.57723, 16, 9.90463],
			"rotation": {"angle": 0, "axis": "y", "origin": [8.57723, 0.5, 7.41935]},
			"faces": {
				"north": {"uv": [9.125, 5.125, 10.625, 5.25], "texture": "#0"},
				"east": {"uv": [3.875, 10.125, 4.5, 10.25], "texture": "#0"},
				"south": {"uv": [9.125, 5.25, 10.625, 5.375], "texture": "#0"},
				"west": {"uv": [6.75, 10.125, 7.375, 10.25], "texture": "#0"},
				"up": {"uv": [7, 4.875, 5.5, 4.25], "texture": "#0"},
				"down": {"uv": [7, 4.875, 5.5, 5.5], "texture": "#0"}
			}
		},
		{
			"name": "bottom",
			"from": [0.57723, 0, -0.58065],
			"to": [16.57723, 1, 15.41935],
			"rotation": {"angle": 0, "axis": "y", "origin": [8.57723, 0, 7.41935]},
			"faces": {
				"north": {"uv": [8.75, 0, 10.75, 0.125], "texture": "#0"},
				"east": {"uv": [8.75, 0.125, 10.75, 0.25], "texture": "#0"},
				"south": {"uv": [8.75, 0.25, 10.75, 0.375], "texture": "#0"},
				"west": {"uv": [8.75, 0.375, 10.75, 0.5], "texture": "#0"},
				"up": {"uv": [2, 2, 0, 0], "texture": "#0"},
				"down": {"uv": [2, 2, 0, 4], "texture": "#0"}
			}
		},
		{
			"from": [15.57723, 15, -0.58065],
			"to": [16.57723, 16, 15.41935],
			"rotation": {"angle": 0, "axis": "y", "origin": [8.57723, 0, 7.41935]},
			"faces": {
				"north": {"uv": [1, 10.625, 1.125, 10.75], "texture": "#0"},
				"east": {"uv": [8.75, 0.5, 10.75, 0.625], "texture": "#0"},
				"south": {"uv": [10.625, 5.875, 10.75, 6], "texture": "#0"},
				"west": {"uv": [8.75, 0.625, 10.75, 0.75], "texture": "#0"},
				"up": {"uv": [1.125, 10.25, 1, 8.25], "texture": "#0"},
				"down": {"uv": [4.75, 8.375, 4.625, 10.375], "texture": "#0"}
			}
		},
		{
			"from": [0.57723, 15, -0.58065],
			"to": [1.57723, 16, 15.41935],
			"rotation": {"angle": 0, "axis": "y", "origin": [8.57723, 0, 7.41935]},
			"faces": {
				"north": {"uv": [6.625, 10.625, 6.75, 10.75], "texture": "#0"},
				"east": {"uv": [8.75, 0.75, 10.75, 0.875], "texture": "#0"},
				"south": {"uv": [1, 10.75, 1.125, 10.875], "texture": "#0"},
				"west": {"uv": [8.75, 0.875, 10.75, 1], "texture": "#0"},
				"up": {"uv": [8.875, 4.75, 8.75, 2.75], "texture": "#0"},
				"down": {"uv": [8.875, 4.75, 8.75, 6.75], "texture": "#0"}
			}
		},
		{
			"from": [0.57723, 15, 0.41935],
			"to": [1.57723, 16, 14.41935],
			"rotation": {"angle": 0, "axis": "y", "origin": [8.57723, 0, 7.41935]},
			"faces": {
				"north": {"uv": [5.25, 10.75, 5.375, 10.875], "texture": "#0"},
				"east": {"uv": [9, 3.75, 10.75, 3.875], "texture": "#0"},
				"south": {"uv": [6.5, 10.875, 6.625, 11], "texture": "#0"},
				"west": {"uv": [9, 3.875, 10.75, 4], "texture": "#0"},
				"up": {"uv": [6.125, 10.625, 6, 8.875], "texture": "#0"},
				"down": {"uv": [6.25, 8.875, 6.125, 10.625], "texture": "#0"}
			}
		},
		{
			"from": [15.57723, 15, 0.41935],
			"to": [16.57723, 16, 14.41935],
			"rotation": {"angle": 0, "axis": "y", "origin": [8.57723, 0, 7.41935]},
			"faces": {
				"north": {"uv": [11.125, 8.875, 11.25, 9], "texture": "#0"},
				"east": {"uv": [9, 4, 10.75, 4.125], "texture": "#0"},
				"south": {"uv": [9, 11.125, 9.125, 11.25], "texture": "#0"},
				"west": {"uv": [9, 4.125, 10.75, 4.25], "texture": "#0"},
				"up": {"uv": [6.375, 10.625, 6.25, 8.875], "texture": "#0"},
				"down": {"uv": [6.5, 8.875, 6.375, 10.625], "texture": "#0"}
			}
		},
		{
			"from": [15.57723, 1, 14.41935],
			"to": [16.57723, 15, 15.41935],
			"rotation": {"angle": 0, "axis": "y", "origin": [8.57723, 0, 7.41935]},
			"faces": {
				"north": {"uv": [9, 4.25, 9.125, 6], "texture": "#0"},
				"east": {"uv": [1.125, 9.125, 1.25, 10.875], "texture": "#0"},
				"south": {"uv": [1.25, 9.125, 1.375, 10.875], "texture": "#0"},
				"west": {"uv": [1.375, 9.125, 1.5, 10.875], "texture": "#0"},
				"up": {"uv": [11.25, 9.375, 11.125, 9.25], "texture": "#0"},
				"down": {"uv": [9.5, 11.125, 9.375, 11.25], "texture": "#0"}
			}
		},
		{
			"from": [0.57723, 1, 14.41935],
			"to": [1.57723, 15, 15.41935],
			"rotation": {"angle": 0, "axis": "y", "origin": [8.57723, 0, 7.41935]},
			"faces": {
				"north": {"uv": [0.25, 9, 0.375, 10.75], "texture": "#0"},
				"east": {"uv": [0.375, 9, 0.5, 10.75], "texture": "#0"},
				"south": {"uv": [0.5, 9, 0.625, 10.75], "texture": "#0"},
				"west": {"uv": [0.625, 9, 0.75, 10.75], "texture": "#0"},
				"up": {"uv": [11.25, 9.25, 11.125, 9.125], "texture": "#0"},
				"down": {"uv": [9.375, 11.125, 9.25, 11.25], "texture": "#0"}
			}
		},
		{
			"name": "back",
			"from": [1.57723, 1, 14.41935],
			"to": [15.57723, 15, 15.21935],
			"rotation": {"angle": 0, "axis": "y", "origin": [8.57723, 0, 7.41935]},
			"faces": {
				"north": {"uv": [2, 0, 3.75, 1.75], "texture": "#0"},
				"east": {"uv": [1.5, 9.125, 1.625, 10.875], "texture": "#0"},
				"south": {"uv": [2, 1.75, 3.75, 3.5], "texture": "#0"},
				"west": {"uv": [2.625, 9.125, 2.75, 10.875], "texture": "#0"},
				"up": {"uv": [10.75, 6.125, 9, 6], "texture": "#0"},
				"down": {"uv": [10.75, 6.125, 9, 6.25], "texture": "#0"}
			}
		},
		{
			"from": [0.57723, 1, -0.58065],
			"to": [1.57723, 15, 0.41935],
			"rotation": {"angle": 0, "axis": "y", "origin": [8.57723, 0, 7.41935]},
			"faces": {
				"north": {"uv": [6.5, 8.875, 6.625, 10.625], "texture": "#0"},
				"east": {"uv": [6.625, 8.875, 6.75, 10.625], "texture": "#0"},
				"south": {"uv": [0, 9, 0.125, 10.75], "texture": "#0"},
				"west": {"uv": [0.125, 9, 0.25, 10.75], "texture": "#0"},
				"up": {"uv": [11.25, 9.125, 11.125, 9], "texture": "#0"},
				"down": {"uv": [9.25, 11.125, 9.125, 11.25], "texture": "#0"}
			}
		},
		{
			"from": [0.77723, 1, 0.41935],
			"to": [1.57723, 15, 14.41935],
			"rotation": {"angle": 0, "axis": "y", "origin": [8.57723, 0, 7.41935]},
			"faces": {
				"north": {"uv": [2.75, 9.125, 2.875, 10.875], "texture": "#0"},
				"east": {"uv": [3.75, 1.75, 5.5, 3.5], "texture": "#0"},
				"south": {"uv": [2.875, 9.125, 3, 10.875], "texture": "#0"},
				"west": {"uv": [3.75, 3.5, 5.5, 5.25], "texture": "#0"},
				"up": {"uv": [3.125, 10.875, 3, 9.125], "texture": "#0"},
				"down": {"uv": [3.25, 9.125, 3.125, 10.875], "texture": "#0"}
			}
		},
		{
			"name": "top",
			"from": [1.57723, 15, 0.41935],
			"to": [15.57723, 15.8, 14.41935],
			"rotation": {"angle": 0, "axis": "y", "origin": [8.57723, 0, 7.41935]},
			"faces": {
				"north": {"uv": [9, 6.25, 10.75, 6.375], "texture": "#0"},
				"east": {"uv": [9, 6.375, 10.75, 6.5], "texture": "#0"},
				"south": {"uv": [9, 6.5, 10.75, 6.625], "texture": "#0"},
				"west": {"uv": [9.125, 4.25, 10.875, 4.375], "texture": "#0"},
				"up": {"uv": [3.75, 5.25, 2, 3.5], "texture": "#0"},
				"down": {"uv": [5.5, 0, 3.75, 1.75], "texture": "#0"}
			}
		},
		{
			"name": "socket",
			"from": [5.57723, 5, 15.21935],
			"to": [11.57723, 11, 15.41935],
			"rotation": {"angle": 0, "axis": "y", "origin": [8.57723, 0, 7.41935]},
			"faces": {
				"north": {"uv": [0, 6.875, 0.75, 7.625], "texture": "#0"},
				"east": {"uv": [8.25, 1.375, 8.375, 2.125], "texture": "#0"},
				"south": {"uv": [3.25, 7, 4, 7.75], "texture": "#0"},
				"west": {"uv": [8.375, 2.75, 8.5, 3.5], "texture": "#0"},
				"up": {"uv": [8.5, 9.625, 7.75, 9.5], "texture": "#0"},
				"down": {"uv": [4.625, 9.75, 3.875, 9.875], "texture": "#0"}
			}
		},
		{
			"name": "socket",
			"from": [0.57723, 5, 4.41935],
			"to": [0.77723, 11, 10.41935],
			"rotation": {"angle": 0, "axis": "y", "origin": [8.57723, 0, 7.41935]},
			"faces": {
				"north": {"uv": [5.875, 9.125, 6, 9.875], "texture": "#0"},
				"east": {"uv": [7, 3.125, 7.75, 3.875], "texture": "#0"},
				"south": {"uv": [5.5, 9.375, 5.625, 10.125], "texture": "#0"},
				"west": {"uv": [3.25, 7, 4, 7.75], "texture": "#0"},
				"up": {"uv": [5.75, 10.125, 5.625, 9.375], "texture": "#0"},
				"down": {"uv": [5.875, 9.375, 5.75, 10.125], "texture": "#0"}
			}
		}
	],
	"display": {
		"thirdperson_righthand": {
			"rotation": [75, 135, 0],
			"translation": [0, 2.5, 0],
			"scale": [0.375, 0.375, 0.375]
		},
		"thirdperson_lefthand": {
			"rotation": [75, 135, 0],
			"translation": [0, 2.5, 0],
			"scale": [0.375, 0.375, 0.375]
		},
		"firstperson_righthand": {
			"rotation": [0, -135, 0],
			"translation": [0, 0.75, 0],
			"scale": [0.4, 0.4, 0.4]
		},
		"firstperson_lefthand": {
			"rotation": [0, -135, 0],
			"translation": [0, 0.75, 0],
			"scale": [0.4, 0.4, 0.4]
		},
		"ground": {
			"translation": [0, 3, 0],
			"scale": [0.375, 0.375, 0.375]
		},
		"gui": {
			"rotation": [30, -135, 0],
			"translation": [0, 0.25, 0],
			"scale": [0.625, 0.625, 0.625]
		}
	},
	"groups": [
		{
			"name": "dynamic",
			"origin": [0, 0, 0],
			"color": 0,
			"children": [
				{
					"name": "rotor2",
					"origin": [0, 9.5, 0],
					"color": 0,
					"children": [0, 1, 2, 3, 4, 5, 6, 7, 8, 9, 10, 11, 12, 13, 14, 15, 16, 17, 18, 19, 20, 21, 22, 23, 24, 25]
				},
				{
					"name": "rotor1",
					"origin": [-2, -1, -2],
					"color": 0,
					"children": [26, 27, 28, 29]
				}
			]
		},
		{
			"name": "static",
			"origin": [0, 0, 0],
			"color": 0,
			"children": [
				30,
				31,
				32,
				33,
				34,
				35,
				36,
				37,
				38,
				39,
				40,
				41,
				42,
				43,
				44,
				45,
				46,
				47,
				48,
				49,
				50,
				51,
				52,
				53,
				54,
				55,
				56,
				57,
				58,
				59,
				60,
				61,
				62,
				63,
				64,
				65,
				66,
				67,
				68,
				69,
				70,
				71,
				72,
				73,
				74,
				75,
				76,
				77,
				78,
				79,
				80,
				81,
				82,
				83,
				84,
				85,
				86,
				87,
				88,
				89,
				90,
				91,
				92,
				93,
				94,
				95,
				96,
				97,
				98,
				99,
				100,
				101,
				102,
				103,
				104,
				{
					"name": "frame",
					"origin": [0, 0, 0],
					"color": 0,
					"children": [105, 106, 107, 108, 109, 110, 111, 112, 113, 114, 115, 116, 117]
				}
			]
		}
	]
}