{
  "variants": {
    "facing=north": { "model": "fracdustry:block/misc/research_desk/research_desk", "y": 180 },
    "facing=south": { "model": "fracdustry:block/misc/research_desk/research_desk" },
    "facing=west": { "model": "fracdustry:block/misc/research_desk/research_desk", "y": 90 },
    "facing=east": { "model": "fracdustry:block/misc/research_desk/research_desk", "y": 270 }
  }
}