{
  "type": "minecraft:crafting_shaped",
  "pattern": [
    "XX",
    " #",
    " #"
  ],
  "key": {
    "#": {
      "item": "minecraft:stick"
    },
    "X": {
      "item": "fracdustry:bronze_ingot"
    }
  },
  "result": {
    "item": "fracdustry:bronze_hoe"
  }
}